%YAML 1.1
%TAG !u! tag:unity3d.com,2011:
--- !u!1001 &4183449564504859995
PrefabInstance:
  m_ObjectHideFlags: 0
  serializedVersion: 2
  m_Modification:
    m_TransformParent: {fileID: 0}
    m_Modifications:
    - target: {fileID: 1987144174373103633, guid: 9db8288e657504c92a2510adbd28e146, type: 3}
      propertyPath: m_LocalRotation.w
      value: -0.7071068
      objectReference: {fileID: 0}
    - target: {fileID: 1987144174373103633, guid: 9db8288e657504c92a2510adbd28e146, type: 3}
      propertyPath: m_LocalRotation.x
      value: 0
      objectReference: {fileID: 0}
    - target: {fileID: 1987144174373103633, guid: 9db8288e657504c92a2510adbd28e146, type: 3}
      propertyPath: m_LocalRotation.y
      value: 0.7071068
      objectReference: {fileID: 0}
    - target: {fileID: 1987144174373103633, guid: 9db8288e657504c92a2510adbd28e146, type: 3}
      propertyPath: m_LocalRotation.z
      value: -0
      objectReference: {fileID: 0}
    - target: {fileID: 1987144174373103633, guid: 9db8288e657504c92a2510adbd28e146, type: 3}
      propertyPath: m_LocalEulerAnglesHint.y
      value: 270
      objectReference: {fileID: 0}
    - target: {fileID: 2704829727745623496, guid: 9db8288e657504c92a2510adbd28e146, type: 3}
      propertyPath: m_Name
      value: Corner_Road Variant270
      objectReference: {fileID: 0}
    - target: {fileID: 2704829727745623497, guid: 9db8288e657504c92a2510adbd28e146, type: 3}
      propertyPath: m_RootOrder
      value: 0
      objectReference: {fileID: 0}
    - target: {fileID: 2704829727745623497, guid: 9db8288e657504c92a2510adbd28e146, type: 3}
      propertyPath: m_LocalPosition.x
      value: 0
      objectReference: {fileID: 0}
    - target: {fileID: 2704829727745623497, guid: 9db8288e657504c92a2510adbd28e146, type: 3}
      propertyPath: m_LocalPosition.y
      value: 0
      objectReference: {fileID: 0}
    - target: {fileID: 2704829727745623497, guid: 9db8288e657504c92a2510adbd28e146, type: 3}
      propertyPath: m_LocalPosition.z
      value: 0
      objectReference: {fileID: 0}
    - target: {fileID: 2704829727745623497, guid: 9db8288e657504c92a2510adbd28e146, type: 3}
      propertyPath: m_LocalRotation.w
      value: 1
      objectReference: {fileID: 0}
    - target: {fileID: 2704829727745623497, guid: 9db8288e657504c92a2510adbd28e146, type: 3}
      propertyPath: m_LocalRotation.x
      value: 0
      objectReference: {fileID: 0}
    - target: {fileID: 2704829727745623497, guid: 9db8288e657504c92a2510adbd28e146, type: 3}
      propertyPath: m_LocalRotation.y
      value: 0
      objectReference: {fileID: 0}
    - target: {fileID: 2704829727745623497, guid: 9db8288e657504c92a2510adbd28e146, type: 3}
      propertyPath: m_LocalRotation.z
      value: 0
      objectReference: {fileID: 0}
    - target: {fileID: 2704829727745623497, guid: 9db8288e657504c92a2510adbd28e146, type: 3}
      propertyPath: m_LocalEulerAnglesHint.x
      value: 0
      objectReference: {fileID: 0}
    - target: {fileID: 2704829727745623497, guid: 9db8288e657504c92a2510adbd28e146, type: 3}
      propertyPath: m_LocalEulerAnglesHint.y
      value: 0
      objectReference: {fileID: 0}
    - target: {fileID: 2704829727745623497, guid: 9db8288e657504c92a2510adbd28e146, type: 3}
      propertyPath: m_LocalEulerAnglesHint.z
      value: 0
      objectReference: {fileID: 0}
    - target: {fileID: 6502790821756270078, guid: 9db8288e657504c92a2510adbd28e146, type: 3}
      propertyPath: m_text
      value: 0,0
      objectReference: {fileID: 0}
    m_RemovedComponents: []
  m_SourcePrefab: {fileID: 100100000, guid: 9db8288e657504c92a2510adbd28e146, type: 3}
