%YAML 1.1
%TAG !u! tag:unity3d.com,2011:
--- !u!1001 &2638042150949000928
PrefabInstance:
  m_ObjectHideFlags: 0
  serializedVersion: 2
  m_Modification:
    m_TransformParent: {fileID: 0}
    m_Modifications:
    - target: {fileID: 298756382379733564, guid: 73a2bbfc037204a1bb6b1461052c9c05, type: 3}
      propertyPath: m_text
      value: 0,0
      objectReference: {fileID: 0}
    - target: {fileID: 5010300273090031571, guid: 73a2bbfc037204a1bb6b1461052c9c05, type: 3}
      propertyPath: m_LocalRotation.w
      value: 0.7071068
      objectReference: {fileID: 0}
    - target: {fileID: 5010300273090031571, guid: 73a2bbfc037204a1bb6b1461052c9c05, type: 3}
      propertyPath: m_LocalRotation.x
      value: 0
      objectReference: {fileID: 0}
    - target: {fileID: 5010300273090031571, guid: 73a2bbfc037204a1bb6b1461052c9c05, type: 3}
      propertyPath: m_LocalRotation.y
      value: 0.7071068
      objectReference: {fileID: 0}
    - target: {fileID: 5010300273090031571, guid: 73a2bbfc037204a1bb6b1461052c9c05, type: 3}
      propertyPath: m_LocalRotation.z
      value: 0
      objectReference: {fileID: 0}
    - target: {fileID: 5010300273090031571, guid: 73a2bbfc037204a1bb6b1461052c9c05, type: 3}
      propertyPath: m_LocalEulerAnglesHint.y
      value: 90
      objectReference: {fileID: 0}
    - target: {fileID: 7770482406257714670, guid: 73a2bbfc037204a1bb6b1461052c9c05, type: 3}
      propertyPath: isPlaceable
      value: 0
      objectReference: {fileID: 0}
    - target: {fileID: 8904343077848465930, guid: 73a2bbfc037204a1bb6b1461052c9c05, type: 3}
      propertyPath: m_Name
      value: TwoWays_Road90
      objectReference: {fileID: 0}
    - target: {fileID: 8904343077848465931, guid: 73a2bbfc037204a1bb6b1461052c9c05, type: 3}
      propertyPath: m_RootOrder
      value: 0
      objectReference: {fileID: 0}
    - target: {fileID: 8904343077848465931, guid: 73a2bbfc037204a1bb6b1461052c9c05, type: 3}
      propertyPath: m_LocalPosition.x
      value: 0
      objectReference: {fileID: 0}
    - target: {fileID: 8904343077848465931, guid: 73a2bbfc037204a1bb6b1461052c9c05, type: 3}
      propertyPath: m_LocalPosition.y
      value: 0
      objectReference: {fileID: 0}
    - target: {fileID: 8904343077848465931, guid: 73a2bbfc037204a1bb6b1461052c9c05, type: 3}
      propertyPath: m_LocalPosition.z
      value: 0
      objectReference: {fileID: 0}
    - target: {fileID: 8904343077848465931, guid: 73a2bbfc037204a1bb6b1461052c9c05, type: 3}
      propertyPath: m_LocalRotation.w
      value: 1
      objectReference: {fileID: 0}
    - target: {fileID: 8904343077848465931, guid: 73a2bbfc037204a1bb6b1461052c9c05, type: 3}
      propertyPath: m_LocalRotation.x
      value: 0
      objectReference: {fileID: 0}
    - target: {fileID: 8904343077848465931, guid: 73a2bbfc037204a1bb6b1461052c9c05, type: 3}
      propertyPath: m_LocalRotation.y
      value: 0
      objectReference: {fileID: 0}
    - target: {fileID: 8904343077848465931, guid: 73a2bbfc037204a1bb6b1461052c9c05, type: 3}
      propertyPath: m_LocalRotation.z
      value: 0
      objectReference: {fileID: 0}
    - target: {fileID: 8904343077848465931, guid: 73a2bbfc037204a1bb6b1461052c9c05, type: 3}
      propertyPath: m_LocalEulerAnglesHint.x
      value: 0
      objectReference: {fileID: 0}
    - target: {fileID: 8904343077848465931, guid: 73a2bbfc037204a1bb6b1461052c9c05, type: 3}
      propertyPath: m_LocalEulerAnglesHint.y
      value: 0
      objectReference: {fileID: 0}
    - target: {fileID: 8904343077848465931, guid: 73a2bbfc037204a1bb6b1461052c9c05, type: 3}
      propertyPath: m_LocalEulerAnglesHint.z
      value: 0
      objectReference: {fileID: 0}
    m_RemovedComponents: []
  m_SourcePrefab: {fileID: 100100000, guid: 73a2bbfc037204a1bb6b1461052c9c05, type: 3}
