# MagicaVoxel @ Ephtracy

# group
o 

# material
mtllib Arbusto.vox.mtl
usemtl palette

# normals
vn -1 0 0
vn 1 0 0
vn 0 0 1
vn 0 0 -1
vn 0 -1 0
vn 0 1 0

# texcoords
vt 0.908203 0.5
vt 0.912109 0.5
vt 0.958984 0.5

# verts
v -0.4 0.2 0.7
v -0.4 0.2 0.3
v -0.4 0.3 0.6
v -0.4 0.3 0.4
v -0.4 0.4 0.7
v -0.4 0.4 0.6
v -0.4 0.4 0.4
v -0.4 0.4 0.3
v -0.3 0.2 0.9
v -0.3 0.2 0.7
v -0.3 0.2 0.3
v -0.3 0.2 0.1
v -0.3 0.2 -0.2
v -0.3 0.2 -0.5
v -0.3 0.3 0.9
v -0.3 0.3 0.8
v -0.3 0.3 0.2
v -0.3 0.3 0.1
v -0.3 0.3 0
v -0.3 0.4 0.7
v -0.3 0.4 0.6
v -0.3 0.4 0.4
v -0.3 0.4 0.3
v -0.3 0.4 -0.2
v -0.3 0.4 -0.5
v -0.3 0.5 0.8
v -0.3 0.5 0.6
v -0.3 0.5 0.5
v -0.3 0.5 0.4
v -0.3 0.5 0.2
v -0.3 0.6 0.6
v -0.3 0.6 0.5
v -0.3 0.6 0.4
v -0.3 0.7 0.4
v -0.3 0.7 0
v -0.2 0.2 0.1
v -0.2 0.2 -0.1
v -0.2 0.2 -0.2
v -0.2 0.2 -0.5
v -0.2 0.2 -0.6
v -0.2 0.3 0.9
v -0.2 0.3 0.8
v -0.2 0.3 0.1
v -0.2 0.3 0
v -0.2 0.4 -0.1
v -0.2 0.4 -0.2
v -0.2 0.4 -0.5
v -0.2 0.5 0.9
v -0.2 0.5 0.8
v -0.2 0.5 0.6
v -0.2 0.5 -0.2
v -0.2 0.5 -0.6
v -0.2 0.6 0.8
v -0.2 0.6 0.6
v -0.2 0.6 0.5
v -0.2 0.6 0.4
v -0.2 0.6 -0.1
v -0.2 0.6 -0.2
v -0.2 0.7 0.4
v -0.2 0.7 0
v -0.2 0.8 0.5
v -0.2 0.8 0.3
v -0.2 0.8 0.2
v -0.2 0.8 0.1
v -0.2 0.8 -0.1
v -0.2 0.9 0.3
v -0.2 0.9 0.2
v -0.2 0.9 0.1
v -0.1 0.2 1
v -0.1 0.2 0.9
v -0.1 0.2 -0.6
v -0.1 0.2 -0.7
v -0.1 0.4 1
v -0.1 0.4 0.9
v -0.1 0.4 -0.6
v -0.1 0.4 -0.7
v -0.1 0.5 -0.2
v -0.1 0.5 -0.5
v -0.1 0.6 0.7
v -0.1 0.6 0.6
v -0.1 0.6 0.5
v -0.1 0.6 -0.1
v -0.1 0.6 -0.2
v -0.1 0.6 -0.5
v -0.1 0.7 0.7
v -0.1 0.7 0.6
v -0.1 0.7 0.5
v -0.1 0.8 0.6
v -0.1 0.8 0.5
v -0.1 0.8 0.4
v -0.1 0.8 0.3
v -0.1 0.8 0.1
v -0.1 0.8 -0.1
v -0.1 0.8 -0.2
v -0.1 0.9 0.5
v -0.1 0.9 0.4
v -0.1 0.9 0.3
v -0.1 0.9 0.1
v -0.1 0.9 -0.1
v 0 0.5 0.9
v 0 0.5 0.8
v 0 0.6 0.9
v 0 0.6 0.8
v 0 0.6 -0.2
v 0 0.6 -0.3
v 0 0.7 -0.2
v 0 0.7 -0.3
v 0 0.9 0.4
v 0 0.9 0.2
v 0 0.9 0
v 0 1 0.4
v 0 1 0.2
v 0 1 0
v 0.1 0.8 0.6
v 0.1 0.8 0.5
v 0.1 0.8 -0.1
v 0.1 0.8 -0.2
v 0.1 0.9 0.6
v 0.1 0.9 0.5
v 0.1 0.9 -0.1
v 0.1 0.9 -0.2
v 0.2 0.2 -0.6
v 0.2 0.2 -0.7
v 0.2 0.4 -0.6
v 0.2 0.4 -0.7
v 0.2 0.5 0.9
v 0.2 0.5 0.8
v 0.2 0.5 -0.3
v 0.2 0.5 -0.5
v 0.2 0.6 0.9
v 0.2 0.6 0.8
v 0.2 0.6 -0.3
v 0.2 0.6 -0.5
v 0.3 0.2 1
v 0.3 0.2 0.9
v 0.3 0.2 -0.5
v 0.3 0.2 -0.6
v 0.3 0.4 1
v 0.3 0.4 0.9
v 0.3 0.4 -0.3
v 0.3 0.4 -0.5
v 0.3 0.5 -0.3
v 0.3 0.5 -0.6
v 0.3 0.8 0.6
v 0.3 0.8 0.5
v 0.3 0.8 -0.1
v 0.3 0.8 -0.2
v 0.3 0.9 0.6
v 0.3 0.9 0.5
v 0.3 0.9 -0.1
v 0.3 0.9 -0.2
v 0.4 0.2 -0.2
v 0.4 0.2 -0.5
v 0.4 0.3 0.9
v 0.4 0.3 0.8
v 0.4 0.3 -0.2
v 0.4 0.3 -0.3
v 0.4 0.4 -0.3
v 0.4 0.4 -0.5
v 0.4 0.5 0.9
v 0.4 0.5 0.8
v 0.4 0.5 0.6
v 0.4 0.6 0.8
v 0.4 0.6 0.7
v 0.4 0.6 0.6
v 0.4 0.7 0.7
v 0.4 0.7 0.6
v 0.4 0.7 -0.2
v 0.4 0.7 -0.3
v 0.4 0.9 0.4
v 0.4 0.9 0.3
v 0.4 0.9 0
v 0.4 1 0.4
v 0.4 1 0.3
v 0.4 1 0
v 0.5 0.2 0.9
v 0.5 0.2 0.7
v 0.5 0.2 -0.1
v 0.5 0.2 -0.2
v 0.5 0.3 0.9
v 0.5 0.3 0.8
v 0.5 0.4 0.7
v 0.5 0.4 0.6
v 0.5 0.4 -0.1
v 0.5 0.4 -0.2
v 0.5 0.5 0.8
v 0.5 0.5 0.6
v 0.5 0.6 0.6
v 0.5 0.6 0.5
v 0.5 0.6 -0.1
v 0.5 0.6 -0.2
v 0.5 0.7 0.6
v 0.5 0.7 0.5
v 0.5 0.8 0.6
v 0.5 0.8 0.5
v 0.5 0.8 0.4
v 0.5 0.8 0.3
v 0.5 0.8 0.1
v 0.5 0.8 -0.1
v 0.5 0.8 -0.2
v 0.5 0.9 0.5
v 0.5 0.9 0.4
v 0.5 0.9 0.3
v 0.5 0.9 0.1
v 0.5 0.9 -0.1
v 0.6 0.2 0.7
v 0.6 0.2 0.3
v 0.6 0.2 -0.1
v 0.6 0.3 0.4
v 0.6 0.3 0.3
v 0.6 0.3 0
v 0.6 0.4 0.7
v 0.6 0.4 0.6
v 0.6 0.4 0.4
v 0.6 0.4 -0.1
v 0.6 0.4 -0.2
v 0.6 0.6 0.6
v 0.6 0.6 0.5
v 0.6 0.6 -0.1
v 0.6 0.6 -0.2
v 0.6 0.7 0.4
v 0.6 0.7 0
v 0.6 0.8 0.5
v 0.6 0.8 0.3
v 0.6 0.8 0.1
v 0.6 0.8 -0.1
v 0.6 0.9 0.3
v 0.6 0.9 0.1
v 0.7 0.3 0.4
v 0.7 0.3 0
v 0.7 0.7 0.4
v 0.7 0.7 0
v -0.1 0.2 1
v -0.1 0.4 1
v 0.1 0.3 1
v 0.1 0.4 1
v 0.2 0.3 1
v 0.2 0.4 1
v 0.3 0.2 1
v 0.3 0.4 1
v -0.3 0.2 0.9
v -0.3 0.3 0.9
v -0.2 0.3 0.9
v -0.2 0.5 0.9
v -0.1 0.2 0.9
v -0.1 0.4 0.9
v 0 0.5 0.9
v 0 0.6 0.9
v 0.1 0.4 0.9
v 0.1 0.6 0.9
v 0.2 0.4 0.9
v 0.2 0.5 0.9
v 0.2 0.6 0.9
v 0.3 0.2 0.9
v 0.3 0.4 0.9
v 0.3 0.5 0.9
v 0.4 0.3 0.9
v 0.4 0.5 0.9
v 0.5 0.2 0.9
v 0.5 0.3 0.9
v -0.3 0.3 0.8
v -0.3 0.5 0.8
v -0.2 0.3 0.8
v -0.2 0.5 0.8
v -0.2 0.6 0.8
v 0 0.5 0.8
v 0 0.6 0.8
v 0.2 0.5 0.8
v 0.2 0.6 0.8
v 0.3 0.5 0.8
v 0.4 0.3 0.8
v 0.4 0.5 0.8
v 0.4 0.6 0.8
v 0.5 0.3 0.8
v 0.5 0.5 0.8
v -0.4 0.2 0.7
v -0.4 0.4 0.7
v -0.3 0.2 0.7
v -0.3 0.4 0.7
v -0.1 0.6 0.7
v -0.1 0.7 0.7
v 0.3 0.6 0.7
v 0.3 0.7 0.7
v 0.4 0.6 0.7
v 0.4 0.7 0.7
v 0.5 0.2 0.7
v 0.5 0.4 0.7
v 0.6 0.2 0.7
v 0.6 0.4 0.7
v -0.3 0.5 0.6
v -0.3 0.6 0.6
v -0.2 0.5 0.6
v -0.2 0.6 0.6
v -0.1 0.7 0.6
v -0.1 0.8 0.6
v 0.1 0.8 0.6
v 0.1 0.9 0.6
v 0.2 0.8 0.6
v 0.2 0.9 0.6
v 0.3 0.7 0.6
v 0.3 0.8 0.6
v 0.3 0.9 0.6
v 0.4 0.5 0.6
v 0.4 0.6 0.6
v 0.4 0.7 0.6
v 0.5 0.4 0.6
v 0.5 0.5 0.6
v 0.5 0.6 0.6
v 0.5 0.7 0.6
v 0.5 0.8 0.6
v 0.6 0.4 0.6
v 0.6 0.6 0.6
v -0.2 0.6 0.5
v -0.2 0.8 0.5
v -0.1 0.6 0.5
v -0.1 0.7 0.5
v -0.1 0.8 0.5
v -0.1 0.9 0.5
v 0.1 0.8 0.5
v 0.1 0.9 0.5
v 0.3 0.8 0.5
v 0.3 0.9 0.5
v 0.5 0.6 0.5
v 0.5 0.7 0.5
v 0.5 0.8 0.5
v 0.5 0.9 0.5
v 0.6 0.6 0.5
v 0.6 0.8 0.5
v -0.3 0.6 0.4
v -0.3 0.7 0.4
v -0.2 0.6 0.4
v -0.2 0.7 0.4
v 0 0.9 0.4
v 0 1 0.4
v 0.1 0.9 0.4
v 0.1 1 0.4
v 0.2 0.9 0.4
v 0.2 1 0.4
v 0.4 0.9 0.4
v 0.4 1 0.4
v 0.6 0.3 0.4
v 0.6 0.4 0.4
v 0.6 0.7 0.4
v 0.7 0.3 0.4
v 0.7 0.7 0.4
v -0.2 0.8 0.3
v -0.2 0.9 0.3
v -0.1 0.8 0.3
v -0.1 0.9 0.3
v 0.5 0.8 0.3
v 0.5 0.9 0.3
v 0.6 0.8 0.3
v 0.6 0.9 0.3
v -0.3 0.2 -0.2
v -0.3 0.4 -0.2
v -0.2 0.2 -0.2
v -0.2 0.4 -0.2
v -0.4 0.2 0.3
v -0.4 0.4 0.3
v -0.3 0.2 0.3
v -0.3 0.4 0.3
v -0.3 0.2 0.1
v -0.3 0.3 0.1
v -0.2 0.2 0.1
v -0.2 0.3 0.1
v -0.2 0.8 0.1
v -0.2 0.9 0.1
v -0.1 0.8 0.1
v -0.1 0.9 0.1
v 0.5 0.8 0.1
v 0.5 0.9 0.1
v 0.6 0.8 0.1
v 0.6 0.9 0.1
v -0.3 0.3 0
v -0.3 0.7 0
v -0.2 0.3 0
v -0.2 0.7 0
v 0 0.9 0
v 0 1 0
v 0.4 0.9 0
v 0.4 1 0
v 0.6 0.3 0
v 0.6 0.7 0
v 0.7 0.3 0
v 0.7 0.7 0
v -0.2 0.6 -0.1
v -0.2 0.8 -0.1
v -0.1 0.6 -0.1
v -0.1 0.8 -0.1
v -0.1 0.9 -0.1
v 0.1 0.8 -0.1
v 0.1 0.9 -0.1
v 0.3 0.8 -0.1
v 0.3 0.9 -0.1
v 0.5 0.2 -0.1
v 0.5 0.4 -0.1
v 0.5 0.6 -0.1
v 0.5 0.8 -0.1
v 0.5 0.9 -0.1
v 0.6 0.2 -0.1
v 0.6 0.4 -0.1
v 0.6 0.6 -0.1
v 0.6 0.8 -0.1
v -0.2 0.5 -0.2
v -0.2 0.6 -0.2
v -0.1 0.5 -0.2
v -0.1 0.6 -0.2
v -0.1 0.8 -0.2
v 0 0.6 -0.2
v 0 0.7 -0.2
v 0.1 0.7 -0.2
v 0.1 0.8 -0.2
v 0.1 0.9 -0.2
v 0.3 0.8 -0.2
v 0.3 0.9 -0.2
v 0.4 0.2 -0.2
v 0.4 0.3 -0.2
v 0.4 0.7 -0.2
v 0.5 0.2 -0.2
v 0.5 0.4 -0.2
v 0.5 0.6 -0.2
v 0.5 0.8 -0.2
v 0.6 0.4 -0.2
v 0.6 0.6 -0.2
v 0 0.6 -0.3
v 0 0.7 -0.3
v 0.1 0.6 -0.3
v 0.1 0.7 -0.3
v 0.2 0.5 -0.3
v 0.2 0.6 -0.3
v 0.3 0.4 -0.3
v 0.3 0.5 -0.3
v 0.4 0.4 -0.3
v 0.4 0.7 -0.3
v -0.3 0.2 -0.5
v -0.3 0.4 -0.5
v -0.2 0.2 -0.5
v -0.2 0.4 -0.5
v -0.1 0.5 -0.5
v -0.1 0.6 -0.5
v 0 0.5 -0.5
v 0 0.6 -0.5
v 0.2 0.5 -0.5
v 0.2 0.6 -0.5
v 0.3 0.2 -0.5
v 0.3 0.4 -0.5
v 0.4 0.2 -0.5
v 0.4 0.4 -0.5
v -0.2 0.2 -0.6
v -0.2 0.5 -0.6
v -0.1 0.2 -0.6
v -0.1 0.4 -0.6
v 0.2 0.2 -0.6
v 0.2 0.4 -0.6
v 0.3 0.2 -0.6
v 0.3 0.5 -0.6
v -0.1 0.2 -0.7
v -0.1 0.4 -0.7
v 0.2 0.2 -0.7
v 0.2 0.4 -0.7
v -0.1 0.2 1
v 0.3 0.2 1
v -0.3 0.2 0.9
v -0.1 0.2 0.9
v 0.3 0.2 0.9
v 0.5 0.2 0.9
v -0.4 0.2 0.7
v -0.3 0.2 0.7
v 0.5 0.2 0.7
v 0.6 0.2 0.7
v -0.4 0.2 0.3
v -0.3 0.2 0.3
v 0.5 0.2 0.3
v 0.6 0.2 0.3
v -0.3 0.2 0.1
v -0.2 0.2 0.1
v -0.1 0.2 0.1
v 0.3 0.2 0.1
v 0.5 0.2 0.1
v -0.1 0.2 0
v 0.3 0.2 0
v -0.2 0.2 -0.1
v -0.1 0.2 -0.1
v 0.5 0.2 -0.1
v 0.6 0.2 -0.1
v -0.3 0.2 -0.2
v -0.2 0.2 -0.2
v -0.1 0.2 -0.2
v 0.4 0.2 -0.2
v 0.5 0.2 -0.2
v -0.3 0.2 -0.5
v -0.2 0.2 -0.5
v 0.3 0.2 -0.5
v 0.4 0.2 -0.5
v -0.2 0.2 -0.6
v -0.1 0.2 -0.6
v 0.2 0.2 -0.6
v 0.3 0.2 -0.6
v -0.1 0.2 -0.7
v 0.2 0.2 -0.7
v 0.6 0.3 0.4
v 0.7 0.3 0.4
v 0.6 0.3 0.3
v -0.3 0.3 0.1
v -0.2 0.3 0.1
v -0.3 0.3 0
v -0.2 0.3 0
v 0.6 0.3 0
v 0.7 0.3 0
v 0.5 0.4 -0.1
v 0.6 0.4 -0.1
v 0.5 0.4 -0.2
v 0.6 0.4 -0.2
v -0.3 0.3 0.9
v -0.2 0.3 0.9
v 0.4 0.3 0.9
v 0.5 0.3 0.9
v -0.3 0.3 0.8
v -0.2 0.3 0.8
v 0.4 0.3 0.8
v 0.5 0.3 0.8
v -0.1 0.4 1
v 0.1 0.4 1
v 0.2 0.4 1
v 0.3 0.4 1
v -0.1 0.4 0.9
v 0.1 0.4 0.9
v 0.2 0.4 0.9
v 0.3 0.4 0.9
v -0.4 0.4 0.7
v -0.3 0.4 0.7
v 0.5 0.4 0.7
v 0.6 0.4 0.7
v -0.4 0.4 0.6
v -0.3 0.4 0.6
v 0.5 0.4 0.6
v 0.6 0.4 0.6
v -0.4 0.4 0.4
v -0.3 0.4 0.4
v -0.4 0.4 0.3
v -0.3 0.4 0.3
v -0.3 0.4 -0.2
v -0.2 0.4 -0.2
v 0.3 0.4 -0.3
v 0.4 0.4 -0.3
v -0.3 0.4 -0.5
v -0.2 0.4 -0.5
v 0.3 0.4 -0.5
v 0.4 0.4 -0.5
v -0.1 0.4 -0.6
v 0.2 0.4 -0.6
v -0.1 0.4 -0.7
v 0.2 0.4 -0.7
v -0.2 0.5 0.9
v 0 0.5 0.9
v 0.2 0.5 0.9
v 0.3 0.5 0.9
v 0.4 0.5 0.9
v -0.3 0.5 0.8
v -0.2 0.5 0.8
v 0 0.5 0.8
v 0.2 0.5 0.8
v 0.3 0.5 0.8
v 0.4 0.5 0.8
v 0.5 0.5 0.8
v -0.3 0.5 0.6
v -0.2 0.5 0.6
v 0.4 0.5 0.6
v 0.5 0.5 0.6
v -0.2 0.5 -0.2
v -0.1 0.5 -0.2
v 0.2 0.5 -0.3
v 0.3 0.5 -0.3
v -0.1 0.5 -0.5
v 0 0.5 -0.5
v 0.2 0.5 -0.5
v -0.2 0.5 -0.6
v 0.3 0.5 -0.6
v 0 0.6 0.9
v 0.1 0.6 0.9
v 0.2 0.6 0.9
v -0.2 0.6 0.8
v 0 0.6 0.8
v 0.1 0.6 0.8
v 0.2 0.6 0.8
v 0.4 0.6 0.8
v -0.1 0.6 0.7
v 0.3 0.6 0.7
v 0.4 0.6 0.7
v -0.3 0.6 0.6
v -0.2 0.6 0.6
v -0.1 0.6 0.6
v 0.5 0.6 0.6
v 0.6 0.6 0.6
v -0.3 0.6 0.5
v -0.2 0.6 0.5
v -0.1 0.6 0.5
v 0.5 0.6 0.5
v 0.6 0.6 0.5
v -0.3 0.6 0.4
v -0.2 0.6 0.4
v -0.2 0.6 -0.1
v -0.1 0.6 -0.1
v 0.5 0.6 -0.1
v 0.6 0.6 -0.1
v -0.2 0.6 -0.2
v -0.1 0.6 -0.2
v 0 0.6 -0.2
v 0.5 0.6 -0.2
v 0.6 0.6 -0.2
v 0 0.6 -0.3
v 0.1 0.6 -0.3
v 0.2 0.6 -0.3
v -0.1 0.6 -0.5
v 0 0.6 -0.5
v 0.2 0.6 -0.5
v -0.1 0.7 0.7
v 0.3 0.7 0.7
v 0.4 0.7 0.7
v -0.1 0.7 0.6
v 0.3 0.7 0.6
v 0.4 0.7 0.6
v -0.3 0.7 0.4
v -0.2 0.7 0.4
v 0.6 0.7 0.4
v 0.7 0.7 0.4
v -0.3 0.7 0
v -0.2 0.7 0
v 0.6 0.7 0
v 0.7 0.7 0
v 0 0.7 -0.2
v 0.1 0.7 -0.2
v 0.4 0.7 -0.2
v 0 0.7 -0.3
v 0.1 0.7 -0.3
v 0.4 0.7 -0.3
v -0.1 0.8 0.6
v 0.1 0.8 0.6
v 0.3 0.8 0.6
v 0.5 0.8 0.6
v -0.2 0.8 0.5
v -0.1 0.8 0.5
v 0.1 0.8 0.5
v 0.3 0.8 0.5
v 0.5 0.8 0.5
v 0.6 0.8 0.5
v -0.1 0.8 0.4
v 0.5 0.8 0.4
v -0.2 0.8 0.3
v -0.1 0.8 0.3
v 0.5 0.8 0.3
v 0.6 0.8 0.3
v -0.2 0.8 0.1
v -0.1 0.8 0.1
v 0.5 0.8 0.1
v 0.6 0.8 0.1
v -0.2 0.8 -0.1
v -0.1 0.8 -0.1
v 0.1 0.8 -0.1
v 0.3 0.8 -0.1
v 0.5 0.8 -0.1
v 0.6 0.8 -0.1
v -0.1 0.8 -0.2
v 0.1 0.8 -0.2
v 0.3 0.8 -0.2
v 0.5 0.8 -0.2
v 0.1 0.9 0.6
v 0.2 0.9 0.6
v 0.3 0.9 0.6
v -0.1 0.9 0.5
v 0.1 0.9 0.5
v 0.3 0.9 0.5
v 0.5 0.9 0.5
v -0.1 0.9 0.4
v 0 0.9 0.4
v 0.1 0.9 0.4
v 0.2 0.9 0.4
v 0.4 0.9 0.4
v 0.5 0.9 0.4
v -0.2 0.9 0.3
v -0.1 0.9 0.3
v 0.4 0.9 0.3
v 0.5 0.9 0.3
v 0.6 0.9 0.3
v -0.2 0.9 0.2
v 0 0.9 0.2
v -0.2 0.9 0.1
v -0.1 0.9 0.1
v 0.5 0.9 0.1
v 0.6 0.9 0.1
v 0 0.9 0
v 0.4 0.9 0
v -0.1 0.9 -0.1
v 0.1 0.9 -0.1
v 0.3 0.9 -0.1
v 0.5 0.9 -0.1
v 0.1 0.9 -0.2
v 0.3 0.9 -0.2
v 0 1 0.4
v 0.1 1 0.4
v 0.2 1 0.4
v 0.4 1 0.4
v 0.2 1 0.3
v 0.4 1 0.3
v 0 1 0.2
v 0.1 1 0.2
v 0 1 0
v 0.4 1 0

# faces
f 3/1/1 2/1/1 1/1/1
f 4/1/1 2/1/1 3/1/1
f 5/1/1 3/1/1 1/1/1
f 6/3/1 4/3/1 3/3/1
f 6/1/1 3/1/1 5/1/1
f 7/1/1 2/1/1 4/1/1
f 7/3/1 4/3/1 6/3/1
f 8/1/1 2/1/1 7/1/1
f 15/1/1 10/1/1 9/1/1
f 16/1/1 10/1/1 15/1/1
f 17/1/1 12/1/1 11/1/1
f 18/1/1 12/1/1 17/1/1
f 20/1/1 10/1/1 16/1/1
f 23/1/1 17/1/1 11/1/1
f 24/1/1 14/1/1 13/1/1
f 25/1/1 14/1/1 24/1/1
f 26/1/1 20/1/1 16/1/1
f 26/1/1 21/1/1 20/1/1
f 27/3/1 22/3/1 21/3/1
f 27/1/1 21/1/1 26/1/1
f 28/3/1 22/3/1 27/3/1
f 29/1/1 23/1/1 22/1/1
f 29/3/1 22/3/1 28/3/1
f 30/2/1 19/2/1 18/2/1
f 30/1/1 23/1/1 29/1/1
f 30/2/1 18/2/1 17/2/1
f 30/1/1 17/1/1 23/1/1
f 31/3/1 28/3/1 27/3/1
f 32/1/1 29/1/1 28/1/1
f 32/3/1 28/3/1 31/3/1
f 33/2/1 30/2/1 29/2/1
f 33/1/1 29/1/1 32/1/1
f 34/2/1 30/2/1 33/2/1
f 35/2/1 19/2/1 30/2/1
f 35/2/1 30/2/1 34/2/1
f 43/2/1 37/2/1 36/2/1
f 44/2/1 37/2/1 43/2/1
f 45/1/1 38/1/1 37/1/1
f 45/2/1 37/2/1 44/2/1
f 46/1/1 38/1/1 45/1/1
f 47/1/1 40/1/1 39/1/1
f 48/1/1 42/1/1 41/1/1
f 49/1/1 42/1/1 48/1/1
f 51/1/1 47/1/1 46/1/1
f 51/2/1 46/2/1 45/2/1
f 52/1/1 40/1/1 47/1/1
f 52/1/1 47/1/1 51/1/1
f 53/1/1 50/1/1 49/1/1
f 54/1/1 50/1/1 53/1/1
f 57/2/1 45/2/1 44/2/1
f 57/2/1 51/2/1 45/2/1
f 58/2/1 51/2/1 57/2/1
f 59/2/1 56/2/1 55/2/1
f 60/2/1 57/2/1 44/2/1
f 61/2/1 59/2/1 55/2/1
f 61/2/1 60/2/1 59/2/1
f 62/2/1 60/2/1 61/2/1
f 63/2/1 60/2/1 62/2/1
f 64/2/1 60/2/1 63/2/1
f 65/2/1 57/2/1 60/2/1
f 65/2/1 60/2/1 64/2/1
f 66/3/1 63/3/1 62/3/1
f 67/2/1 64/2/1 63/2/1
f 67/3/1 63/3/1 66/3/1
f 68/2/1 64/2/1 67/2/1
f 73/1/1 70/1/1 69/1/1
f 74/1/1 70/1/1 73/1/1
f 75/1/1 72/1/1 71/1/1
f 76/1/1 72/1/1 75/1/1
f 83/3/1 78/3/1 77/3/1
f 84/3/1 78/3/1 83/3/1
f 85/1/1 81/1/1 80/1/1
f 85/1/1 80/1/1 79/1/1
f 86/1/1 81/1/1 85/1/1
f 87/1/1 81/1/1 86/1/1
f 88/2/1 87/2/1 86/2/1
f 89/2/1 87/2/1 88/2/1
f 93/3/1 83/3/1 82/3/1
f 94/3/1 83/3/1 93/3/1
f 95/2/1 90/2/1 89/2/1
f 96/3/1 91/3/1 90/3/1
f 96/2/1 90/2/1 95/2/1
f 97/3/1 91/3/1 96/3/1
f 98/2/1 93/2/1 92/2/1
f 99/2/1 93/2/1 98/2/1
f 102/1/1 101/1/1 100/1/1
f 103/1/1 101/1/1 102/1/1
f 106/3/1 105/3/1 104/3/1
f 107/3/1 105/3/1 106/3/1
f 111/3/1 109/3/1 108/3/1
f 112/2/1 110/2/1 109/2/1
f 112/3/1 109/3/1 111/3/1
f 113/2/1 110/2/1 112/2/1
f 118/2/1 115/2/1 114/2/1
f 119/2/1 115/2/1 118/2/1
f 120/2/1 117/2/1 116/2/1
f 121/2/1 117/2/1 120/2/1
f 122/1/2 123/1/2 124/1/2
f 124/1/2 123/1/2 125/1/2
f 126/3/2 127/3/2 130/3/2
f 130/3/2 127/3/2 131/3/2
f 128/1/2 129/1/2 132/1/2
f 132/1/2 129/1/2 133/1/2
f 134/1/2 135/1/2 138/1/2
f 138/1/2 135/1/2 139/1/2
f 136/1/2 137/1/2 141/1/2
f 140/1/2 141/1/2 142/1/2
f 141/1/2 137/1/2 143/1/2
f 142/1/2 141/1/2 143/1/2
f 144/3/2 145/3/2 148/3/2
f 148/3/2 145/3/2 149/3/2
f 146/2/2 147/2/2 150/2/2
f 150/2/2 147/2/2 151/2/2
f 152/1/2 153/1/2 156/1/2
f 156/1/2 153/1/2 157/1/2
f 156/2/2 157/2/2 158/2/2
f 157/1/2 153/1/2 158/1/2
f 158/1/2 153/1/2 159/1/2
f 154/1/2 155/1/2 160/1/2
f 160/1/2 155/1/2 161/1/2
f 161/1/2 162/1/2 163/1/2
f 163/1/2 162/1/2 164/1/2
f 164/1/2 162/1/2 165/1/2
f 164/2/2 165/2/2 166/2/2
f 166/2/2 165/2/2 167/2/2
f 156/2/2 158/2/2 168/2/2
f 168/2/2 158/2/2 169/2/2
f 170/3/2 171/3/2 173/3/2
f 171/2/2 172/2/2 174/2/2
f 173/3/2 171/3/2 174/3/2
f 174/2/2 172/2/2 175/2/2
f 176/1/2 177/1/2 180/1/2
f 180/1/2 177/1/2 181/1/2
f 181/1/2 177/1/2 182/1/2
f 178/2/2 179/2/2 184/2/2
f 184/2/2 179/2/2 185/2/2
f 182/1/2 183/1/2 186/1/2
f 181/1/2 182/1/2 186/1/2
f 186/1/2 183/1/2 187/1/2
f 188/2/2 189/2/2 192/2/2
f 192/2/2 189/2/2 193/2/2
f 192/3/2 193/3/2 194/3/2
f 194/3/2 193/3/2 195/3/2
f 190/2/2 191/2/2 199/2/2
f 199/2/2 191/2/2 200/2/2
f 195/3/2 196/3/2 201/3/2
f 196/2/2 197/2/2 202/2/2
f 201/3/2 196/3/2 202/3/2
f 202/2/2 197/2/2 203/2/2
f 198/2/2 199/2/2 204/2/2
f 204/2/2 199/2/2 205/2/2
f 206/1/2 207/1/2 209/1/2
f 207/2/2 208/2/2 210/2/2
f 209/1/2 207/1/2 210/1/2
f 210/2/2 208/2/2 211/2/2
f 206/1/2 209/1/2 212/1/2
f 212/1/2 209/1/2 213/1/2
f 213/1/2 209/1/2 214/1/2
f 211/2/2 208/2/2 215/2/2
f 213/2/2 214/2/2 217/2/2
f 217/2/2 214/2/2 218/2/2
f 215/2/2 216/2/2 219/2/2
f 211/2/2 215/2/2 219/2/2
f 219/2/2 216/2/2 220/2/2
f 218/2/2 214/2/2 221/2/2
f 211/2/2 219/2/2 222/2/2
f 218/2/2 221/2/2 223/2/2
f 221/2/2 222/2/2 223/2/2
f 223/2/2 222/2/2 224/2/2
f 224/2/2 222/2/2 225/2/2
f 222/2/2 219/2/2 226/2/2
f 225/2/2 222/2/2 226/2/2
f 224/2/2 225/2/2 227/2/2
f 227/2/2 225/2/2 228/2/2
f 229/2/2 230/2/2 231/2/2
f 231/2/2 230/2/2 232/2/2
f 235/1/3 234/1/3 233/1/3
f 236/1/3 234/1/3 235/1/3
f 237/1/3 235/1/3 233/1/3
f 237/3/3 236/3/3 235/3/3
f 238/3/3 236/3/3 237/3/3
f 239/1/3 237/1/3 233/1/3
f 239/1/3 238/1/3 237/1/3
f 240/1/3 238/1/3 239/1/3
f 243/1/3 242/1/3 241/1/3
f 245/1/3 243/1/3 241/1/3
f 245/1/3 244/1/3 243/1/3
f 246/1/3 244/1/3 245/1/3
f 247/1/3 244/1/3 246/1/3
f 249/1/3 247/1/3 246/1/3
f 249/1/3 248/1/3 247/1/3
f 250/1/3 248/1/3 249/1/3
f 251/3/3 250/3/3 249/3/3
f 252/3/3 250/3/3 251/3/3
f 253/3/3 250/3/3 252/3/3
f 255/3/3 252/3/3 251/3/3
f 256/3/3 252/3/3 255/3/3
f 257/1/3 255/1/3 254/1/3
f 257/1/3 256/1/3 255/1/3
f 258/1/3 256/1/3 257/1/3
f 259/1/3 257/1/3 254/1/3
f 260/1/3 257/1/3 259/1/3
f 263/1/3 262/1/3 261/1/3
f 264/1/3 262/1/3 263/1/3
f 266/1/3 265/1/3 264/1/3
f 267/1/3 265/1/3 266/1/3
f 270/1/3 269/1/3 268/1/3
f 272/1/3 269/1/3 270/1/3
f 273/1/3 269/1/3 272/1/3
f 274/1/3 272/1/3 271/1/3
f 275/1/3 272/1/3 274/1/3
f 278/1/3 277/1/3 276/1/3
f 279/1/3 277/1/3 278/1/3
f 282/1/3 281/1/3 280/1/3
f 283/1/3 281/1/3 282/1/3
f 284/2/3 283/2/3 282/2/3
f 285/2/3 283/2/3 284/2/3
f 288/1/3 287/1/3 286/1/3
f 289/1/3 287/1/3 288/1/3
f 292/3/3 291/3/3 290/3/3
f 293/3/3 291/3/3 292/3/3
f 296/2/3 295/2/3 294/2/3
f 298/2/3 296/2/3 294/2/3
f 298/2/3 297/2/3 296/2/3
f 299/2/3 297/2/3 298/2/3
f 300/2/3 298/2/3 294/2/3
f 301/3/3 299/3/3 298/3/3
f 301/2/3 298/2/3 300/2/3
f 302/3/3 299/3/3 301/3/3
f 305/3/3 301/3/3 300/3/3
f 307/1/3 304/1/3 303/1/3
f 308/2/3 305/2/3 304/2/3
f 308/1/3 304/1/3 307/1/3
f 309/3/3 301/3/3 305/3/3
f 309/2/3 305/2/3 308/2/3
f 310/3/3 301/3/3 309/3/3
f 311/2/3 307/2/3 306/2/3
f 311/2/3 308/2/3 307/2/3
f 312/2/3 308/2/3 311/2/3
f 315/2/3 314/2/3 313/2/3
f 316/2/3 314/2/3 315/2/3
f 317/2/3 314/2/3 316/2/3
f 319/2/3 318/2/3 317/2/3
f 320/2/3 318/2/3 319/2/3
f 325/3/3 322/3/3 321/3/3
f 326/3/3 322/3/3 325/3/3
f 327/2/3 324/2/3 323/2/3
f 327/2/3 325/2/3 324/2/3
f 328/2/3 325/2/3 327/2/3
f 331/2/3 330/2/3 329/2/3
f 332/2/3 330/2/3 331/2/3
f 335/3/3 334/3/3 333/3/3
f 336/3/3 334/3/3 335/3/3
f 337/2/3 336/2/3 335/2/3
f 338/2/3 336/2/3 337/2/3
f 339/3/3 338/3/3 337/3/3
f 340/3/3 338/3/3 339/3/3
f 344/2/3 342/2/3 341/2/3
f 344/2/3 343/2/3 342/2/3
f 345/2/3 343/2/3 344/2/3
f 348/3/3 347/3/3 346/3/3
f 349/3/3 347/3/3 348/3/3
f 352/2/3 351/2/3 350/2/3
f 353/2/3 351/2/3 352/2/3
f 356/1/3 355/1/3 354/1/3
f 357/1/3 355/1/3 356/1/3
f 358/1/4 359/1/4 360/1/4
f 360/1/4 359/1/4 361/1/4
f 362/1/4 363/1/4 364/1/4
f 364/1/4 363/1/4 365/1/4
f 366/2/4 367/2/4 368/2/4
f 368/2/4 367/2/4 369/2/4
f 370/2/4 371/2/4 372/2/4
f 372/2/4 371/2/4 373/2/4
f 374/2/4 375/2/4 376/2/4
f 376/2/4 375/2/4 377/2/4
f 378/2/4 379/2/4 380/2/4
f 380/2/4 379/2/4 381/2/4
f 382/2/4 383/2/4 384/2/4
f 384/2/4 383/2/4 385/2/4
f 386/2/4 387/2/4 388/2/4
f 388/2/4 387/2/4 389/2/4
f 389/2/4 390/2/4 391/2/4
f 391/2/4 390/2/4 392/2/4
f 393/2/4 394/2/4 398/2/4
f 398/2/4 394/2/4 399/2/4
f 395/2/4 396/2/4 400/2/4
f 400/2/4 396/2/4 401/2/4
f 397/2/4 398/2/4 402/2/4
f 402/2/4 398/2/4 403/2/4
f 404/2/4 405/2/4 406/2/4
f 406/2/4 405/2/4 407/2/4
f 407/3/4 408/3/4 409/3/4
f 409/3/4 408/3/4 410/3/4
f 410/3/4 408/3/4 411/3/4
f 411/3/4 408/3/4 412/3/4
f 411/2/4 412/2/4 414/2/4
f 412/2/4 413/2/4 414/2/4
f 414/2/4 413/2/4 415/2/4
f 411/2/4 414/2/4 418/2/4
f 416/2/4 417/2/4 419/2/4
f 417/2/4 418/2/4 419/2/4
f 419/2/4 418/2/4 420/2/4
f 420/2/4 418/2/4 421/2/4
f 418/2/4 414/2/4 422/2/4
f 421/2/4 418/2/4 422/2/4
f 420/2/4 421/2/4 423/2/4
f 423/2/4 421/2/4 424/2/4
f 425/3/4 426/3/4 427/3/4
f 427/3/4 426/3/4 428/3/4
f 427/2/4 428/2/4 430/2/4
f 429/2/4 430/2/4 432/2/4
f 431/2/4 432/2/4 433/2/4
f 430/2/4 428/2/4 434/2/4
f 433/2/4 432/2/4 434/2/4
f 432/2/4 430/2/4 434/2/4
f 435/1/4 436/1/4 437/1/4
f 437/1/4 436/1/4 438/1/4
f 439/3/4 440/3/4 441/3/4
f 441/3/4 440/3/4 442/3/4
f 441/1/4 442/1/4 443/1/4
f 443/1/4 442/1/4 444/1/4
f 445/1/4 446/1/4 447/1/4
f 447/1/4 446/1/4 448/1/4
f 449/1/4 450/1/4 451/1/4
f 451/1/4 450/1/4 452/1/4
f 452/1/4 450/1/4 454/1/4
f 453/1/4 454/1/4 455/1/4
f 454/1/4 450/1/4 456/1/4
f 455/1/4 454/1/4 456/1/4
f 457/1/4 458/1/4 459/1/4
f 459/1/4 458/1/4 460/1/4
f 464/1/5 462/1/5 461/1/5
f 465/1/5 462/1/5 464/1/5
f 468/1/5 464/1/5 463/1/5
f 468/1/5 466/1/5 465/1/5
f 468/1/5 465/1/5 464/1/5
f 469/1/5 466/1/5 468/1/5
f 471/1/5 468/1/5 467/1/5
f 471/1/5 470/1/5 469/1/5
f 471/1/5 469/1/5 468/1/5
f 472/1/5 470/1/5 471/1/5
f 473/1/5 470/1/5 472/1/5
f 474/1/5 470/1/5 473/1/5
f 475/1/5 473/1/5 472/1/5
f 476/1/5 473/1/5 475/1/5
f 477/1/5 473/1/5 476/1/5
f 478/1/5 473/1/5 477/1/5
f 479/2/5 474/2/5 473/2/5
f 479/1/5 473/1/5 478/1/5
f 480/1/5 478/1/5 477/1/5
f 480/2/5 477/2/5 476/2/5
f 481/2/5 479/2/5 478/2/5
f 481/1/5 478/1/5 480/1/5
f 482/2/5 480/2/5 476/2/5
f 482/2/5 481/2/5 480/2/5
f 483/2/5 481/2/5 482/2/5
f 484/2/5 474/2/5 479/2/5
f 484/2/5 481/2/5 483/2/5
f 484/2/5 479/2/5 481/2/5
f 485/2/5 474/2/5 484/2/5
f 487/1/5 483/1/5 482/1/5
f 488/2/5 484/2/5 483/2/5
f 488/1/5 483/1/5 487/1/5
f 489/2/5 484/2/5 488/2/5
f 490/2/5 484/2/5 489/2/5
f 491/1/5 487/1/5 486/1/5
f 491/1/5 488/1/5 487/1/5
f 491/1/5 489/1/5 488/1/5
f 492/1/5 489/1/5 491/1/5
f 493/1/5 489/1/5 492/1/5
f 494/1/5 489/1/5 493/1/5
f 495/1/5 493/1/5 492/1/5
f 496/1/5 493/1/5 495/1/5
f 497/1/5 493/1/5 496/1/5
f 498/1/5 493/1/5 497/1/5
f 499/1/5 497/1/5 496/1/5
f 500/1/5 497/1/5 499/1/5
f 503/2/5 502/2/5 501/2/5
f 506/2/5 505/2/5 504/2/5
f 507/2/5 505/2/5 506/2/5
f 508/2/5 502/2/5 503/2/5
f 509/2/5 502/2/5 508/2/5
f 512/2/5 511/2/5 510/2/5
f 513/2/5 511/2/5 512/2/5
f 514/1/6 515/1/6 518/1/6
f 518/1/6 515/1/6 519/1/6
f 516/1/6 517/1/6 520/1/6
f 520/1/6 517/1/6 521/1/6
f 522/1/6 523/1/6 526/1/6
f 523/3/6 524/3/6 527/3/6
f 526/1/6 523/1/6 527/1/6
f 524/1/6 525/1/6 528/1/6
f 527/3/6 524/3/6 528/3/6
f 528/1/6 525/1/6 529/1/6
f 530/1/6 531/1/6 534/1/6
f 534/1/6 531/1/6 535/1/6
f 532/1/6 533/1/6 536/1/6
f 536/1/6 533/1/6 537/1/6
f 534/3/6 535/3/6 538/3/6
f 538/3/6 535/3/6 539/3/6
f 538/1/6 539/1/6 540/1/6
f 540/1/6 539/1/6 541/1/6
f 542/1/6 543/1/6 546/1/6
f 546/1/6 543/1/6 547/1/6
f 544/1/6 545/1/6 548/1/6
f 548/1/6 545/1/6 549/1/6
f 550/1/6 551/1/6 552/1/6
f 552/1/6 551/1/6 553/1/6
f 554/1/6 555/1/6 560/1/6
f 560/1/6 555/1/6 561/1/6
f 556/3/6 557/3/6 562/3/6
f 557/1/6 558/1/6 563/1/6
f 562/3/6 557/3/6 563/3/6
f 563/1/6 558/1/6 564/1/6
f 559/1/6 560/1/6 566/1/6
f 566/1/6 560/1/6 567/1/6
f 564/1/6 565/1/6 568/1/6
f 568/1/6 565/1/6 569/1/6
f 570/1/6 571/1/6 574/1/6
f 572/1/6 573/1/6 576/1/6
f 574/1/6 575/1/6 577/1/6
f 575/1/6 576/1/6 577/1/6
f 570/1/6 574/1/6 577/1/6
f 576/1/6 573/1/6 578/1/6
f 577/1/6 576/1/6 578/1/6
f 579/1/6 580/1/6 583/1/6
f 580/3/6 581/3/6 584/3/6
f 583/1/6 580/1/6 584/1/6
f 584/3/6 581/3/6 585/3/6
f 582/1/6 583/1/6 587/1/6
f 585/1/6 586/1/6 587/1/6
f 584/1/6 585/1/6 587/1/6
f 583/1/6 584/1/6 587/1/6
f 587/1/6 586/1/6 588/1/6
f 588/1/6 586/1/6 589/1/6
f 582/1/6 587/1/6 591/1/6
f 591/1/6 587/1/6 592/1/6
f 591/3/6 592/3/6 595/3/6
f 590/3/6 591/3/6 595/3/6
f 595/3/6 592/3/6 596/3/6
f 596/3/6 592/3/6 597/3/6
f 593/2/6 594/2/6 598/2/6
f 598/2/6 594/2/6 599/2/6
f 595/1/6 596/1/6 600/1/6
f 600/1/6 596/1/6 601/1/6
f 602/2/6 603/2/6 606/2/6
f 606/2/6 603/2/6 607/2/6
f 604/2/6 605/2/6 609/2/6
f 609/2/6 605/2/6 610/2/6
f 607/3/6 608/3/6 611/3/6
f 607/3/6 611/3/6 614/3/6
f 612/1/6 613/1/6 615/1/6
f 614/3/6 611/3/6 615/3/6
f 611/1/6 612/1/6 615/1/6
f 615/1/6 613/1/6 616/1/6
f 617/1/6 618/1/6 620/1/6
f 618/2/6 619/2/6 621/2/6
f 620/1/6 618/1/6 621/1/6
f 621/2/6 619/2/6 622/2/6
f 623/2/6 624/2/6 627/2/6
f 627/2/6 624/2/6 628/2/6
f 625/2/6 626/2/6 629/2/6
f 629/2/6 626/2/6 630/2/6
f 631/3/6 632/3/6 634/3/6
f 632/2/6 633/2/6 635/2/6
f 634/3/6 632/3/6 635/3/6
f 635/2/6 633/2/6 636/2/6
f 637/2/6 638/2/6 642/2/6
f 642/2/6 638/2/6 643/2/6
f 639/3/6 640/3/6 644/3/6
f 644/3/6 640/3/6 645/3/6
f 641/2/6 642/2/6 647/2/6
f 645/2/6 646/2/6 648/2/6
f 641/2/6 647/2/6 649/2/6
f 649/2/6 647/2/6 650/2/6
f 648/2/6 646/2/6 651/2/6
f 651/2/6 646/2/6 652/2/6
f 653/2/6 654/2/6 657/2/6
f 657/2/6 654/2/6 658/2/6
f 655/2/6 656/2/6 661/2/6
f 661/2/6 656/2/6 662/2/6
f 658/3/6 659/3/6 663/3/6
f 663/3/6 659/3/6 664/3/6
f 660/2/6 661/2/6 665/2/6
f 665/2/6 661/2/6 666/2/6
f 667/2/6 668/2/6 671/2/6
f 668/3/6 669/3/6 672/3/6
f 670/2/6 671/2/6 674/2/6
f 674/2/6 671/2/6 675/2/6
f 671/2/6 668/2/6 676/2/6
f 675/2/6 671/2/6 676/2/6
f 672/3/6 673/3/6 677/3/6
f 676/2/6 668/2/6 677/2/6
f 668/3/6 672/3/6 677/3/6
f 677/3/6 673/3/6 678/3/6
f 678/3/6 673/3/6 679/3/6
f 674/3/6 675/3/6 681/3/6
f 678/2/6 679/2/6 682/2/6
f 682/2/6 679/2/6 683/2/6
f 680/3/6 681/3/6 685/3/6
f 681/3/6 675/3/6 686/3/6
f 685/3/6 681/3/6 686/3/6
f 685/2/6 686/2/6 687/2/6
f 687/2/6 686/2/6 688/2/6
f 682/2/6 683/2/6 689/2/6
f 683/2/6 684/2/6 689/2/6
f 689/2/6 684/2/6 690/2/6
f 688/2/6 686/2/6 691/2/6
f 682/2/6 689/2/6 692/2/6
f 688/2/6 691/2/6 693/2/6
f 691/2/6 692/2/6 693/2/6
f 693/2/6 692/2/6 694/2/6
f 694/2/6 692/2/6 695/2/6
f 692/2/6 689/2/6 696/2/6
f 695/2/6 692/2/6 696/2/6
f 694/2/6 695/2/6 697/2/6
f 697/2/6 695/2/6 698/2/6
f 700/2/6 701/2/6 703/2/6
f 701/3/6 702/3/6 703/3/6
f 703/3/6 702/3/6 704/3/6
f 699/3/6 700/3/6 705/3/6
f 700/2/6 703/2/6 706/2/6
f 705/3/6 700/3/6 706/3/6
f 703/2/6 704/2/6 706/2/6
f 705/2/6 706/2/6 707/2/6
f 706/2/6 704/2/6 708/2/6
f 707/2/6 706/2/6 708/2/6
