# MagicaVoxel @ Ephtracy

# group
o 

# material
mtllib ManchitaBody.vox.mtl
usemtl palette

# normals
vn 0 1 0
vn 0 -1 0
vn -1 0 0
vn 1 0 0
vn 0 0 -1
vn 0 0 1

# texcoords
vt 0.974609 0.5
vt 0.978516 0.5

# verts
v -0.6 1.1 -0.9
v -0.1 1.1 -0.9
v -0.6 1.1 -0.7
v -0.5 1.1 -0.7
v -0.5 1.1 -0.6
v -0.4 1.1 -0.6
v -0.4 1.1 -0.5
v -0.3 1.1 -0.5
v -0.4 1.1 -0.4
v -0.3 1.1 -0.4
v -0.5 1.1 -0.3
v -0.4 1.1 -0.3
v -0.2 1.1 -0.3
v -0.1 1.1 -0.3
v -0.6 1.1 -0.2
v -0.5 1.1 -0.2
v -0.3 1.1 -0.2
v -0.2 1.1 -0.2
v -0.4 1.1 -0.1
v -0.3 1.1 -0.1
v -0.4 1.1 0
v -0.3 1.1 0
v -0.6 1.1 0.1
v -0.3 1.1 0.1
v -0.1 1.1 0.1
v -0.6 0.7 -0.9
v -0.1 0.7 -0.9
v -0.6 0.7 -0.6
v -0.5 0.7 -0.6
v -0.5 0.7 -0.5
v -0.4 0.7 -0.5
v -0.5 0.7 -0.4
v -0.4 0.7 -0.4
v -0.6 0.7 -0.3
v -0.5 0.7 -0.3
v -0.6 0.7 0.1
v -0.1 0.7 0.1
v -0.6 1.1 -0.9
v -0.6 1.1 -0.7
v -0.6 1.1 -0.2
v -0.6 1.1 0.1
v -0.6 0.9 -0.3
v -0.6 0.9 -0.2
v -0.6 0.8 -0.7
v -0.6 0.8 -0.6
v -0.6 0.7 -0.9
v -0.6 0.7 -0.6
v -0.6 0.7 -0.3
v -0.6 0.7 0.1
v -0.1 1.1 -0.9
v -0.1 1.1 -0.3
v -0.1 1.1 0.1
v -0.1 1 -0.3
v -0.1 1 -0.2
v -0.1 0.9 -0.1
v -0.1 0.9 0.1
v -0.1 0.8 -0.2
v -0.1 0.8 -0.1
v -0.1 0.7 -0.9
v -0.1 0.7 0.1
v -0.6 1.1 -0.9
v -0.6 0.7 -0.9
v -0.1 1.1 -0.9
v -0.1 0.7 -0.9
v -0.6 1.1 0.1
v -0.6 0.7 0.1
v -0.3 1.1 0.1
v -0.3 0.8 0.1
v -0.2 0.9 0.1
v -0.2 0.8 0.1
v -0.1 1.1 0.1
v -0.1 0.9 0.1
v -0.1 0.7 0.1

# faces
f 3/1/1 2/1/1 1/1/1
f 4/1/1 2/1/1 3/1/1
f 5/2/1 4/2/1 3/2/1
f 5/1/1 2/1/1 4/1/1
f 6/1/1 2/1/1 5/1/1
f 7/2/1 6/2/1 5/2/1
f 7/1/1 2/1/1 6/1/1
f 8/1/1 2/1/1 7/1/1
f 9/2/1 7/2/1 5/2/1
f 9/2/1 8/2/1 7/2/1
f 10/1/1 2/1/1 8/1/1
f 10/2/1 8/2/1 9/2/1
f 11/2/1 5/2/1 3/2/1
f 11/2/1 9/2/1 5/2/1
f 12/1/1 10/1/1 9/1/1
f 12/2/1 9/2/1 11/2/1
f 13/1/1 2/1/1 10/1/1
f 13/1/1 10/1/1 12/1/1
f 14/1/1 2/1/1 13/1/1
f 15/2/1 11/2/1 3/2/1
f 16/1/1 12/1/1 11/1/1
f 16/2/1 11/2/1 15/2/1
f 16/1/1 13/1/1 12/1/1
f 17/1/1 13/1/1 16/1/1
f 18/2/1 14/2/1 13/2/1
f 18/1/1 13/1/1 17/1/1
f 19/1/1 17/1/1 16/1/1
f 19/1/1 16/1/1 15/1/1
f 20/2/1 18/2/1 17/2/1
f 20/1/1 17/1/1 19/1/1
f 21/1/1 19/1/1 15/1/1
f 21/2/1 20/2/1 19/2/1
f 22/2/1 18/2/1 20/2/1
f 22/2/1 20/2/1 21/2/1
f 23/1/1 21/1/1 15/1/1
f 23/1/1 22/1/1 21/1/1
f 24/2/1 18/2/1 22/2/1
f 24/1/1 22/1/1 23/1/1
f 25/2/1 14/2/1 18/2/1
f 25/2/1 18/2/1 24/2/1
f 26/1/2 27/1/2 28/1/2
f 28/1/2 27/1/2 29/1/2
f 28/2/2 29/2/2 30/2/2
f 29/1/2 27/1/2 30/1/2
f 30/1/2 27/1/2 31/1/2
f 28/2/2 30/2/2 32/2/2
f 30/2/2 31/2/2 32/2/2
f 31/1/2 27/1/2 33/1/2
f 32/2/2 31/2/2 33/2/2
f 28/2/2 32/2/2 34/2/2
f 32/1/2 33/1/2 35/1/2
f 34/2/2 32/2/2 35/2/2
f 34/1/2 35/1/2 36/1/2
f 33/1/2 27/1/2 37/1/2
f 36/1/2 35/1/2 37/1/2
f 35/1/2 33/1/2 37/1/2
f 42/2/3 40/2/3 39/2/3
f 43/1/3 41/1/3 40/1/3
f 43/2/3 40/2/3 42/2/3
f 44/1/3 39/1/3 38/1/3
f 44/2/3 42/2/3 39/2/3
f 45/2/3 42/2/3 44/2/3
f 46/1/3 44/1/3 38/1/3
f 46/1/3 45/1/3 44/1/3
f 47/2/3 42/2/3 45/2/3
f 47/1/3 45/1/3 46/1/3
f 48/1/3 43/1/3 42/1/3
f 48/2/3 42/2/3 47/2/3
f 49/1/3 41/1/3 43/1/3
f 49/1/3 43/1/3 48/1/3
f 50/1/4 51/1/4 53/1/4
f 51/2/4 52/2/4 53/2/4
f 53/2/4 52/2/4 54/2/4
f 54/2/4 52/2/4 55/2/4
f 55/2/4 52/2/4 56/2/4
f 53/1/4 54/1/4 57/1/4
f 54/2/4 55/2/4 57/2/4
f 55/1/4 56/1/4 58/1/4
f 57/2/4 55/2/4 58/2/4
f 50/1/4 53/1/4 59/1/4
f 53/1/4 57/1/4 59/1/4
f 57/1/4 58/1/4 59/1/4
f 58/1/4 56/1/4 60/1/4
f 59/1/4 58/1/4 60/1/4
f 63/1/5 62/1/5 61/1/5
f 64/1/5 62/1/5 63/1/5
f 65/1/6 66/1/6 67/1/6
f 67/1/6 66/1/6 68/1/6
f 67/2/6 68/2/6 69/2/6
f 68/1/6 66/1/6 70/1/6
f 69/2/6 68/2/6 70/2/6
f 67/2/6 69/2/6 71/2/6
f 69/1/6 70/1/6 72/1/6
f 71/2/6 69/2/6 72/2/6
f 70/1/6 66/1/6 73/1/6
f 72/1/6 70/1/6 73/1/6
