# MagicaVoxel @ Ephtracy

# group
o 

# material
mtllib Tile4.vox.mtl
usemtl palette

# normals
vn -1 0 0
vn 1 0 0
vn 0 0 1
vn 0 0 -1
vn 0 -1 0
vn 0 1 0

# texcoords
vt 0.853516 0.5
vt 0.857422 0.5
vt 0.861328 0.5
vt 0.908203 0.5

# verts
v -2 0 2
v -2 0 -2
v -2 0.1 2
v -2 0.1 -2
v 2 0 2
v 2 0 -2
v 2 0.1 2
v 2 0.1 -2
v -2 0 2
v -2 0.1 2
v -1.5 0 2
v -1.5 0.1 2
v -1.4 0 2
v -1.4 0.1 2
v 1.4 0 2
v 1.4 0.1 2
v 1.5 0 2
v 1.5 0.1 2
v 2 0 2
v 2 0.1 2
v -2 0 -2
v -2 0.1 -2
v -1.6 0 -2
v -1.6 0.1 -2
v -1.4 0 -2
v -1.4 0.1 -2
v -1.3 0 -2
v -1.3 0.1 -2
v 1.4 0 -2
v 1.4 0.1 -2
v 1.5 0 -2
v 1.5 0.1 -2
v 2 0 -2
v 2 0.1 -2
v -2 0 2
v -1.5 0 2
v -1.4 0 2
v 1.4 0 2
v 1.5 0 2
v 2 0 2
v -0.8 0 1.7
v -0.7 0 1.7
v 1.6 0 1.7
v 1.7 0 1.7
v -0.8 0 1.6
v -0.7 0 1.6
v 1.6 0 1.6
v 1.7 0 1.6
v -1.7 0 1.3
v -1.6 0 1.3
v -1.7 0 1.2
v -1.6 0 1.2
v 0.3 0 0.8
v 0.4 0 0.8
v -1.9 0 0.7
v -1.8 0 0.7
v 0.3 0 0.7
v 0.4 0 0.7
v -1.9 0 0.6
v -1.8 0 0.6
v 1.7 0 0.6
v 1.8 0 0.6
v 1.7 0 0.5
v 1.8 0 0.5
v 1.3 0 -0.3
v 1.4 0 -0.3
v 1.4 0 -0.4
v 1.5 0 -0.4
v 1.4 0 -0.5
v 1.5 0 -0.5
v 1.4 0 -0.6
v 1.5 0 -0.6
v 1.4 0 -0.9
v 1.5 0 -0.9
v 1.4 0 -1
v 1.5 0 -1
v 1.5 0 -1.1
v 1.6 0 -1.1
v 1.4 0 -1.2
v 1.5 0 -1.2
v 1.6 0 -1.2
v 1.3 0 -1.3
v 1.4 0 -1.3
v 1.8 0 -1.5
v 1.9 0 -1.5
v -1.9 0 -1.6
v -1.8 0 -1.6
v -1.6 0 -1.6
v -1.5 0 -1.6
v 1.8 0 -1.6
v 1.9 0 -1.6
v -1.9 0 -1.7
v -1.8 0 -1.7
v -0.3 0 -1.7
v -0.2 0 -1.7
v -0.3 0 -1.8
v -0.2 0 -1.8
v -1.4 0 -1.9
v -1.3 0 -1.9
v -2 0 -2
v -1.6 0 -2
v -1.4 0 -2
v -1.3 0 -2
v 1.4 0 -2
v 1.5 0 -2
v 2 0 -2
v -2 0.1 2
v -1.5 0.1 2
v -1.4 0.1 2
v 1.4 0.1 2
v 1.5 0.1 2
v 2 0.1 2
v -0.8 0.1 1.7
v -0.7 0.1 1.7
v 1.6 0.1 1.7
v 1.7 0.1 1.7
v -0.8 0.1 1.6
v -0.7 0.1 1.6
v 1.6 0.1 1.6
v 1.7 0.1 1.6
v -1.7 0.1 1.3
v -1.6 0.1 1.3
v -1.7 0.1 1.2
v -1.6 0.1 1.2
v 0.3 0.1 0.8
v 0.4 0.1 0.8
v -1.9 0.1 0.7
v -1.8 0.1 0.7
v 0.3 0.1 0.7
v 0.4 0.1 0.7
v -1.9 0.1 0.6
v -1.8 0.1 0.6
v 1.7 0.1 0.6
v 1.8 0.1 0.6
v 1.7 0.1 0.5
v 1.8 0.1 0.5
v 1.3 0.1 -0.3
v 1.4 0.1 -0.3
v 1.4 0.1 -0.4
v 1.5 0.1 -0.4
v 1.4 0.1 -0.5
v 1.5 0.1 -0.5
v 1.4 0.1 -0.6
v 1.5 0.1 -0.6
v 1.4 0.1 -0.9
v 1.5 0.1 -0.9
v 1.4 0.1 -1
v 1.5 0.1 -1
v 1.5 0.1 -1.1
v 1.6 0.1 -1.1
v 1.4 0.1 -1.2
v 1.5 0.1 -1.2
v 1.6 0.1 -1.2
v 1.3 0.1 -1.3
v 1.4 0.1 -1.3
v 1.8 0.1 -1.5
v 1.9 0.1 -1.5
v -1.9 0.1 -1.6
v -1.8 0.1 -1.6
v -1.6 0.1 -1.6
v -1.5 0.1 -1.6
v 1.8 0.1 -1.6
v 1.9 0.1 -1.6
v -1.9 0.1 -1.7
v -1.8 0.1 -1.7
v -0.3 0.1 -1.7
v -0.2 0.1 -1.7
v -0.3 0.1 -1.8
v -0.2 0.1 -1.8
v -1.4 0.1 -1.9
v -1.3 0.1 -1.9
v -2 0.1 -2
v -1.6 0.1 -2
v -1.4 0.1 -2
v -1.3 0.1 -2
v 1.4 0.1 -2
v 1.5 0.1 -2
v 2 0.1 -2

# faces
f 3/2/1 2/2/1 1/2/1
f 4/2/1 2/2/1 3/2/1
f 5/2/2 6/2/2 7/2/2
f 7/2/2 6/2/2 8/2/2
f 11/2/3 10/2/3 9/2/3
f 12/2/3 10/2/3 11/2/3
f 13/3/3 12/3/3 11/3/3
f 14/3/3 12/3/3 13/3/3
f 15/1/3 14/1/3 13/1/3
f 16/1/3 14/1/3 15/1/3
f 17/3/3 16/3/3 15/3/3
f 18/3/3 16/3/3 17/3/3
f 19/2/3 18/2/3 17/2/3
f 20/2/3 18/2/3 19/2/3
f 21/2/4 22/2/4 23/2/4
f 23/2/4 22/2/4 24/2/4
f 23/3/4 24/3/4 25/3/4
f 25/3/4 24/3/4 26/3/4
f 25/4/4 26/4/4 27/4/4
f 27/4/4 26/4/4 28/4/4
f 27/1/4 28/1/4 29/1/4
f 29/1/4 28/1/4 30/1/4
f 29/3/4 30/3/4 31/3/4
f 31/3/4 30/3/4 32/3/4
f 31/2/4 32/2/4 33/2/4
f 33/2/4 32/2/4 34/2/4
f 41/1/5 38/1/5 37/1/5
f 42/1/5 38/1/5 41/1/5
f 43/2/5 40/2/5 39/2/5
f 44/2/5 40/2/5 43/2/5
f 45/1/5 41/1/5 37/1/5
f 45/3/5 42/3/5 41/3/5
f 46/1/5 38/1/5 42/1/5
f 46/3/5 42/3/5 45/3/5
f 47/3/5 44/3/5 43/3/5
f 47/2/5 43/2/5 39/2/5
f 48/2/5 40/2/5 44/2/5
f 48/3/5 44/3/5 47/3/5
f 49/2/5 36/2/5 35/2/5
f 50/2/5 36/2/5 49/2/5
f 51/2/5 49/2/5 35/2/5
f 51/3/5 50/3/5 49/3/5
f 52/2/5 36/2/5 50/2/5
f 52/3/5 50/3/5 51/3/5
f 53/1/5 38/1/5 46/1/5
f 53/1/5 46/1/5 45/1/5
f 54/1/5 38/1/5 53/1/5
f 55/2/5 52/2/5 51/2/5
f 55/2/5 51/2/5 35/2/5
f 56/2/5 52/2/5 55/2/5
f 57/3/5 54/3/5 53/3/5
f 57/1/5 53/1/5 45/1/5
f 58/1/5 38/1/5 54/1/5
f 58/3/5 54/3/5 57/3/5
f 59/3/5 56/3/5 55/3/5
f 59/2/5 55/2/5 35/2/5
f 60/2/5 52/2/5 56/2/5
f 60/3/5 56/3/5 59/3/5
f 61/2/5 40/2/5 48/2/5
f 61/2/5 48/2/5 47/2/5
f 62/2/5 40/2/5 61/2/5
f 63/2/5 61/2/5 47/2/5
f 63/3/5 62/3/5 61/3/5
f 64/2/5 40/2/5 62/2/5
f 64/3/5 62/3/5 63/3/5
f 65/1/5 38/1/5 58/1/5
f 65/1/5 58/1/5 57/1/5
f 66/3/5 39/3/5 38/3/5
f 66/1/5 38/1/5 65/1/5
f 67/3/5 66/3/5 65/3/5
f 67/3/5 39/3/5 66/3/5
f 68/2/5 47/2/5 39/2/5
f 68/3/5 39/3/5 67/3/5
f 68/2/5 64/2/5 63/2/5
f 68/2/5 63/2/5 47/2/5
f 69/3/5 67/3/5 65/3/5
f 69/2/5 68/2/5 67/2/5
f 70/2/5 64/2/5 68/2/5
f 70/2/5 68/2/5 69/2/5
f 71/3/5 69/3/5 65/3/5
f 71/3/5 70/3/5 69/3/5
f 72/2/5 64/2/5 70/2/5
f 72/3/5 70/3/5 71/3/5
f 73/3/5 71/3/5 65/3/5
f 73/2/5 72/2/5 71/2/5
f 74/2/5 64/2/5 72/2/5
f 74/2/5 72/2/5 73/2/5
f 75/3/5 73/3/5 65/3/5
f 75/3/5 74/3/5 73/3/5
f 76/2/5 64/2/5 74/2/5
f 76/3/5 74/3/5 75/3/5
f 77/2/5 76/2/5 75/2/5
f 77/2/5 64/2/5 76/2/5
f 78/2/5 64/2/5 77/2/5
f 79/3/5 75/3/5 65/3/5
f 79/2/5 77/2/5 75/2/5
f 80/3/5 78/3/5 77/3/5
f 80/2/5 77/2/5 79/2/5
f 81/2/5 64/2/5 78/2/5
f 81/3/5 78/3/5 80/3/5
f 82/1/5 65/1/5 57/1/5
f 82/3/5 80/3/5 79/3/5
f 82/3/5 79/3/5 65/3/5
f 83/3/5 80/3/5 82/3/5
f 84/2/5 64/2/5 81/2/5
f 84/2/5 81/2/5 80/2/5
f 84/2/5 40/2/5 64/2/5
f 85/2/5 40/2/5 84/2/5
f 86/2/5 60/2/5 59/2/5
f 86/2/5 59/2/5 35/2/5
f 87/2/5 52/2/5 60/2/5
f 87/2/5 60/2/5 86/2/5
f 88/2/5 36/2/5 52/2/5
f 88/2/5 52/2/5 87/2/5
f 89/3/5 37/3/5 36/3/5
f 89/2/5 36/2/5 88/2/5
f 90/3/5 85/3/5 84/3/5
f 90/2/5 84/2/5 80/2/5
f 91/2/5 40/2/5 85/2/5
f 91/3/5 85/3/5 90/3/5
f 92/2/5 86/2/5 35/2/5
f 92/3/5 87/3/5 86/3/5
f 93/2/5 88/2/5 87/2/5
f 93/3/5 87/3/5 92/3/5
f 94/1/5 83/1/5 82/1/5
f 94/1/5 57/1/5 45/1/5
f 94/1/5 82/1/5 57/1/5
f 95/1/5 83/1/5 94/1/5
f 96/1/5 94/1/5 45/1/5
f 96/3/5 95/3/5 94/3/5
f 97/1/5 83/1/5 95/1/5
f 97/3/5 95/3/5 96/3/5
f 98/1/5 45/1/5 37/1/5
f 98/3/5 37/3/5 89/3/5
f 98/1/5 97/1/5 96/1/5
f 98/1/5 96/1/5 45/1/5
f 98/3/5 89/3/5 88/3/5
f 99/1/5 97/1/5 98/1/5
f 100/2/5 92/2/5 35/2/5
f 100/2/5 93/2/5 92/2/5
f 101/2/5 88/2/5 93/2/5
f 101/2/5 93/2/5 100/2/5
f 101/3/5 98/3/5 88/3/5
f 102/4/5 99/4/5 98/4/5
f 102/3/5 98/3/5 101/3/5
f 103/1/5 97/1/5 99/1/5
f 103/4/5 99/4/5 102/4/5
f 104/1/5 83/1/5 97/1/5
f 104/1/5 97/1/5 103/1/5
f 104/3/5 80/3/5 83/3/5
f 105/2/5 90/2/5 80/2/5
f 105/3/5 80/3/5 104/3/5
f 105/2/5 91/2/5 90/2/5
f 106/2/5 40/2/5 91/2/5
f 106/2/5 91/2/5 105/2/5
f 109/1/6 110/1/6 113/1/6
f 113/1/6 110/1/6 114/1/6
f 111/2/6 112/2/6 115/2/6
f 115/2/6 112/2/6 116/2/6
f 109/1/6 113/1/6 117/1/6
f 113/3/6 114/3/6 117/3/6
f 114/1/6 110/1/6 118/1/6
f 117/3/6 114/3/6 118/3/6
f 115/3/6 116/3/6 119/3/6
f 111/2/6 115/2/6 119/2/6
f 116/2/6 112/2/6 120/2/6
f 119/3/6 116/3/6 120/3/6
f 107/2/6 108/2/6 121/2/6
f 121/2/6 108/2/6 122/2/6
f 107/2/6 121/2/6 123/2/6
f 121/3/6 122/3/6 123/3/6
f 122/2/6 108/2/6 124/2/6
f 123/3/6 122/3/6 124/3/6
f 118/1/6 110/1/6 125/1/6
f 117/1/6 118/1/6 125/1/6
f 125/1/6 110/1/6 126/1/6
f 123/2/6 124/2/6 127/2/6
f 107/2/6 123/2/6 127/2/6
f 127/2/6 124/2/6 128/2/6
f 125/3/6 126/3/6 129/3/6
f 117/1/6 125/1/6 129/1/6
f 126/1/6 110/1/6 130/1/6
f 129/3/6 126/3/6 130/3/6
f 127/3/6 128/3/6 131/3/6
f 107/2/6 127/2/6 131/2/6
f 128/2/6 124/2/6 132/2/6
f 131/3/6 128/3/6 132/3/6
f 120/2/6 112/2/6 133/2/6
f 119/2/6 120/2/6 133/2/6
f 133/2/6 112/2/6 134/2/6
f 119/2/6 133/2/6 135/2/6
f 133/3/6 134/3/6 135/3/6
f 134/2/6 112/2/6 136/2/6
f 135/3/6 134/3/6 136/3/6
f 130/1/6 110/1/6 137/1/6
f 129/1/6 130/1/6 137/1/6
f 110/3/6 111/3/6 138/3/6
f 137/1/6 110/1/6 138/1/6
f 137/3/6 138/3/6 139/3/6
f 138/3/6 111/3/6 139/3/6
f 111/2/6 119/2/6 140/2/6
f 139/3/6 111/3/6 140/3/6
f 135/2/6 136/2/6 140/2/6
f 119/2/6 135/2/6 140/2/6
f 137/3/6 139/3/6 141/3/6
f 139/2/6 140/2/6 141/2/6
f 140/2/6 136/2/6 142/2/6
f 141/2/6 140/2/6 142/2/6
f 137/3/6 141/3/6 143/3/6
f 141/3/6 142/3/6 143/3/6
f 142/2/6 136/2/6 144/2/6
f 143/3/6 142/3/6 144/3/6
f 137/3/6 143/3/6 145/3/6
f 143/2/6 144/2/6 145/2/6
f 144/2/6 136/2/6 146/2/6
f 145/2/6 144/2/6 146/2/6
f 137/3/6 145/3/6 147/3/6
f 145/3/6 146/3/6 147/3/6
f 146/2/6 136/2/6 148/2/6
f 147/3/6 146/3/6 148/3/6
f 147/2/6 148/2/6 149/2/6
f 148/2/6 136/2/6 149/2/6
f 149/2/6 136/2/6 150/2/6
f 137/3/6 147/3/6 151/3/6
f 147/2/6 149/2/6 151/2/6
f 149/3/6 150/3/6 152/3/6
f 151/2/6 149/2/6 152/2/6
f 150/2/6 136/2/6 153/2/6
f 152/3/6 150/3/6 153/3/6
f 129/1/6 137/1/6 154/1/6
f 151/3/6 152/3/6 154/3/6
f 137/3/6 151/3/6 154/3/6
f 154/3/6 152/3/6 155/3/6
f 153/2/6 136/2/6 156/2/6
f 152/2/6 153/2/6 156/2/6
f 136/2/6 112/2/6 156/2/6
f 156/2/6 112/2/6 157/2/6
f 131/2/6 132/2/6 158/2/6
f 107/2/6 131/2/6 158/2/6
f 132/2/6 124/2/6 159/2/6
f 158/2/6 132/2/6 159/2/6
f 124/2/6 108/2/6 160/2/6
f 159/2/6 124/2/6 160/2/6
f 108/3/6 109/3/6 161/3/6
f 160/2/6 108/2/6 161/2/6
f 156/3/6 157/3/6 162/3/6
f 152/2/6 156/2/6 162/2/6
f 157/2/6 112/2/6 163/2/6
f 162/3/6 157/3/6 163/3/6
f 107/2/6 158/2/6 164/2/6
f 158/3/6 159/3/6 164/3/6
f 159/2/6 160/2/6 165/2/6
f 164/3/6 159/3/6 165/3/6
f 154/1/6 155/1/6 166/1/6
f 117/1/6 129/1/6 166/1/6
f 129/1/6 154/1/6 166/1/6
f 166/1/6 155/1/6 167/1/6
f 117/1/6 166/1/6 168/1/6
f 166/3/6 167/3/6 168/3/6
f 167/1/6 155/1/6 169/1/6
f 168/3/6 167/3/6 169/3/6
f 109/1/6 117/1/6 170/1/6
f 161/3/6 109/3/6 170/3/6
f 168/1/6 169/1/6 170/1/6
f 117/1/6 168/1/6 170/1/6
f 160/3/6 161/3/6 170/3/6
f 170/1/6 169/1/6 171/1/6
f 107/2/6 164/2/6 172/2/6
f 164/2/6 165/2/6 172/2/6
f 165/2/6 160/2/6 173/2/6
f 172/2/6 165/2/6 173/2/6
f 160/3/6 170/3/6 173/3/6
f 170/4/6 171/4/6 174/4/6
f 173/3/6 170/3/6 174/3/6
f 171/1/6 169/1/6 175/1/6
f 174/4/6 171/4/6 175/4/6
f 169/1/6 155/1/6 176/1/6
f 175/1/6 169/1/6 176/1/6
f 155/3/6 152/3/6 176/3/6
f 152/2/6 162/2/6 177/2/6
f 176/3/6 152/3/6 177/3/6
f 162/2/6 163/2/6 177/2/6
f 163/2/6 112/2/6 178/2/6
f 177/2/6 163/2/6 178/2/6
